EESchema Schematic File Version 4
LIBS:ergowaki-cache
EELAYER 29 0
EELAYER END
$Descr A4 11693 8268
encoding utf-8
Sheet 1 1
Title ""
Date ""
Rev ""
Comp ""
Comment1 ""
Comment2 ""
Comment3 ""
Comment4 ""
$EndDescr
$Comp
L Switch:SW_Push SW10
U 1 1 5D3E5346
P 4100 2300
F 0 "SW10" H 4100 2585 50  0000 C CNN
F 1 "SW_Push" H 4100 2494 50  0000 C CNN
F 2 "Button_Switch_Keyboard:SW_Cherry_MX_1.00u_PCB" H 4100 2500 50  0001 C CNN
F 3 "~" H 4100 2500 50  0001 C CNN
	1    4100 2300
	1    0    0    -1  
$EndComp
$Comp
L Switch:SW_Push SW09
U 1 1 5D3E584E
P 5200 2200
F 0 "SW09" H 5200 2485 50  0000 C CNN
F 1 "SW_Push" H 5200 2394 50  0000 C CNN
F 2 "Button_Switch_Keyboard:SW_Cherry_MX_1.00u_PCB" H 5200 2400 50  0001 C CNN
F 3 "~" H 5200 2400 50  0001 C CNN
	1    5200 2200
	1    0    0    -1  
$EndComp
$Comp
L Switch:SW_Push SW08
U 1 1 5D3E60B2
P 6250 2100
F 0 "SW08" H 6250 2385 50  0000 C CNN
F 1 "SW_Push" H 6250 2294 50  0000 C CNN
F 2 "Button_Switch_Keyboard:SW_Cherry_MX_1.00u_PCB" H 6250 2300 50  0001 C CNN
F 3 "~" H 6250 2300 50  0001 C CNN
	1    6250 2100
	1    0    0    -1  
$EndComp
$Comp
L Switch:SW_Push SW07
U 1 1 5D3E67A3
P 7300 2000
F 0 "SW07" H 7300 2285 50  0000 C CNN
F 1 "SW_Push" H 7300 2194 50  0000 C CNN
F 2 "Button_Switch_Keyboard:SW_Cherry_MX_1.00u_PCB" H 7300 2200 50  0001 C CNN
F 3 "~" H 7300 2200 50  0001 C CNN
	1    7300 2000
	1    0    0    -1  
$EndComp
$Comp
L Switch:SW_Push SW06
U 1 1 5D3E6FB5
P 4100 2650
F 0 "SW06" H 4100 2935 50  0000 C CNN
F 1 "SW_Push" H 4100 2844 50  0000 C CNN
F 2 "Button_Switch_Keyboard:SW_Cherry_MX_1.00u_PCB" H 4100 2850 50  0001 C CNN
F 3 "~" H 4100 2850 50  0001 C CNN
	1    4100 2650
	1    0    0    -1  
$EndComp
$Comp
L Switch:SW_Push SW05
U 1 1 5D3E7522
P 5200 2750
F 0 "SW05" H 5200 3035 50  0000 C CNN
F 1 "SW_Push" H 5200 2944 50  0000 C CNN
F 2 "Button_Switch_Keyboard:SW_Cherry_MX_1.00u_PCB" H 5200 2950 50  0001 C CNN
F 3 "~" H 5200 2950 50  0001 C CNN
	1    5200 2750
	1    0    0    -1  
$EndComp
$Comp
L Switch:SW_Push SW04
U 1 1 5D3E7A49
P 5950 2900
F 0 "SW04" H 5950 3185 50  0000 C CNN
F 1 "SW_Push" H 5950 3094 50  0000 C CNN
F 2 "Button_Switch_Keyboard:SW_Cherry_MX_1.00u_PCB" H 5950 3100 50  0001 C CNN
F 3 "~" H 5950 3100 50  0001 C CNN
	1    5950 2900
	1    0    0    -1  
$EndComp
$Comp
L Switch:SW_Push SW03
U 1 1 5D3E7E20
P 6500 3150
F 0 "SW03" H 6500 3435 50  0000 C CNN
F 1 "4" H 6500 3344 50  0000 C CNN
F 2 "Button_Switch_Keyboard:SW_Cherry_MX_1.00u_PCB" H 6500 3350 50  0001 C CNN
F 3 "~" H 6500 3350 50  0001 C CNN
	1    6500 3150
	1    0    0    -1  
$EndComp
$Comp
L Switch:SW_Push SW02
U 1 1 5D3E8377
P 6300 3900
F 0 "SW02" H 6300 4185 50  0000 C CNN
F 1 "SW_Push" H 6300 4094 50  0000 C CNN
F 2 "Button_Switch_Keyboard:SW_Cherry_MX_1.00u_PCB" H 6300 4100 50  0001 C CNN
F 3 "~" H 6300 4100 50  0001 C CNN
	1    6300 3900
	1    0    0    -1  
$EndComp
$Comp
L Switch:SW_Push SW01
U 1 1 5D3E8749
P 7300 4000
F 0 "SW01" H 7300 4285 50  0000 C CNN
F 1 "SW_Push" H 7300 4194 50  0000 C CNN
F 2 "Button_Switch_Keyboard:SW_Cherry_MX_1.00u_PCB" H 7300 4200 50  0001 C CNN
F 3 "~" H 7300 4200 50  0001 C CNN
	1    7300 4000
	1    0    0    -1  
$EndComp
$Comp
L Switch:SW_Push SW00
U 1 1 5D3E8E3C
P 8050 4100
F 0 "SW00" H 8050 4385 50  0000 C CNN
F 1 "SW_Push" H 8050 4294 50  0000 C CNN
F 2 "Button_Switch_Keyboard:SW_Cherry_MX_1.00u_PCB" H 8050 4300 50  0001 C CNN
F 3 "~" H 8050 4300 50  0001 C CNN
	1    8050 4100
	1    0    0    -1  
$EndComp
$Comp
L SparkFun-Boards:SPARKFUN_PRO_MICRO B1
U 1 1 5D3E2949
P 8550 2500
F 0 "B1" H 8550 3410 45  0000 C CNN
F 1 "SPARKFUN_PRO_MICRO" H 8550 3326 45  0000 C CNN
F 2 "Boards:SPARKFUN_PRO_MICRO" H 8550 3300 20  0001 C CNN
F 3 "" H 8550 2500 50  0001 C CNN
F 4 "XXX-00000" H 8550 3231 60  0000 C CNN "Field4"
	1    8550 2500
	1    0    0    -1  
$EndComp
Text GLabel 7100 2000 0    50   Input ~ 0
GND
Text GLabel 6050 2100 0    50   Input ~ 0
GND
Wire Wire Line
	7500 2000 7500 2550
Wire Wire Line
	7500 2550 8100 2550
Wire Wire Line
	6450 2100 7400 2100
Wire Wire Line
	7400 2100 7400 2650
Wire Wire Line
	7400 2650 8100 2650
Wire Wire Line
	5400 2200 7300 2200
Wire Wire Line
	7300 2200 7300 2750
Wire Wire Line
	7300 2750 8100 2750
Wire Wire Line
	4300 2300 7200 2300
Wire Wire Line
	7200 2300 7200 2850
Wire Wire Line
	7200 2850 8100 2850
Wire Wire Line
	4300 2650 7100 2650
Wire Wire Line
	7100 2650 7100 2950
Wire Wire Line
	7100 2950 8100 2950
Wire Wire Line
	5400 2750 7000 2750
Wire Wire Line
	7000 2750 7000 3050
Wire Wire Line
	7000 3050 8100 3050
Text GLabel 5000 2200 0    50   Input ~ 0
GND
Text GLabel 3900 2300 0    50   Input ~ 0
GND
Text GLabel 3900 2650 0    50   Input ~ 0
GND
Text GLabel 5750 2900 0    50   Input ~ 0
GND
Text GLabel 6300 3150 0    50   Input ~ 0
GND
Text GLabel 6100 3900 0    50   Input ~ 0
GND
Text GLabel 7100 4000 0    50   Input ~ 0
GND
Text GLabel 7850 4100 0    50   Input ~ 0
GND
Text GLabel 5000 2750 0    50   Input ~ 0
GND
Text GLabel 8000 2250 0    50   Input ~ 0
GND
Wire Wire Line
	8000 2250 8100 2250
Text GLabel 8000 2150 0    50   Input ~ 0
GND
Wire Wire Line
	8000 2150 8100 2150
Wire Wire Line
	9000 3050 9000 4100
Wire Wire Line
	9000 4100 8250 4100
Wire Wire Line
	7500 4000 9100 4000
Wire Wire Line
	9100 4000 9100 2650
Wire Wire Line
	9100 2650 9000 2650
Wire Wire Line
	6500 3900 9200 3900
Wire Wire Line
	9200 3900 9200 2550
Wire Wire Line
	9200 2550 9000 2550
Wire Wire Line
	6700 3150 6700 3350
Wire Wire Line
	6700 3350 9300 3350
Wire Wire Line
	9300 3350 9300 2450
Wire Wire Line
	9300 2450 9000 2450
Wire Wire Line
	6150 2900 6850 2900
Wire Wire Line
	6850 2900 6850 3250
Wire Wire Line
	6850 3250 9400 3250
Wire Wire Line
	9400 3250 9400 2350
Wire Wire Line
	9400 2350 9000 2350
$EndSCHEMATC
